<svg width="24" height="24" viewBox="0 0 24 24" fill="none" xmlns="http://www.w3.org/2000/svg">
<path d="M11.9994 0C7.25281 0 3.39073 3.86184 3.39073 8.60869C3.39073 11.9012 4.25858 13.0447 11.3487 23.6522C11.494 23.8695 11.738 24 11.9994 24C12.2608 24 12.5048 23.8695 12.6501 23.6523C19.74 13.0484 20.6081 11.8668 20.6081 8.60873C20.6081 3.86184 16.746 0 11.9994 0ZM11.9994 12.5217C9.84167 12.5217 8.08639 10.7664 8.08639 8.60869C8.08639 6.45094 9.84167 4.69566 11.9994 4.69566C14.1572 4.69566 15.9125 6.45094 15.9125 8.60869C15.9125 10.7664 14.1572 12.5217 11.9994 12.5217Z" fill="#6E6E6E"/>
</svg>
